{
  "project_info": {
    "project_number": "1041619842087",
    "firebase_url": "https://kfc-vietnam.firebaseio.com",
    "project_id": "kfc-vietnam",
    "storage_bucket": "kfc-vietnam.appspot.com"
  },
  "client": [
    {
      "client_info": {
        "mobilesdk_app_id": "1:1041619842087:android:3db40e1669a6c5b9",
        "android_client_info": {
          "package_name": "kfc.vietnam"
        }
      },
      "oauth_client": [
        {
          "client_id": "1041619842087-96r2rqbqqhbq4j0c6dcc4om564kecgtq.apps.googleusercontent.com",
          "client_type": 1,
          "android_info": {
            "package_name": "kfc.vietnam",
            "certificate_hash": "013ED37E09CCEEE9545BB37B7DCB85E7228D4BB5"
          }
        },
        {
          "client_id": "1041619842087-cmaqei6m906alan3tb7itanc0vov8tv6.apps.googleusercontent.com",
          "client_type": 3
        },
        {
          "client_id": "1041619842087-ae224hem3rjg8hqcehm4ftio4l29bihk.apps.googleusercontent.com",
          "client_type": 3
        }
      ],
      "api_key": [
        {
          "current_key": "AIzaSyBVQStCJ1a1DE-ob6XWwtCZ4aaCxLf8nZM"
        }
      ],
      "services": {
        "analytics_service": {
          "status": 1
        },
        "appinvite_service": {
          "status": 2,
          "other_platform_oauth_client": [
            {
              "client_id": "1041619842087-ph7tlejm5n36o9k74gobri3jhp52oo3j.apps.googleusercontent.com",
              "client_type": 2,
              "ios_info": {
                "bundle_id": "com.vietbuzzad.kfcvn",
                "app_store_id": "562164615"
              }
            },
            {
              "client_id": "1041619842087-cmaqei6m906alan3tb7itanc0vov8tv6.apps.googleusercontent.com",
              "client_type": 3
            }
          ]
        },
        "ads_service": {
          "status": 2
        }
      }
    }
  ],
  "configuration_version": "1"
}